{
  "LuaSnip": { "branch": "master", "commit": "50fcf17db7c75af80e6b6109acfbfb4504768780" },
  "alpha-nvim": { "branch": "main", "commit": "41283fb402713fc8b327e60907f74e46166f4cfd" },
  "catppuccin": { "branch": "main", "commit": "c0bea773a09e49e123136b099bce9ddc1bf395d2" },
  "cmp-nvim-lsp": { "branch": "main", "commit": "39e2eda76828d88b773cc27a3f61d2ad782c922d" },
  "cmp_luasnip": { "branch": "master", "commit": "05a9ab28b53f71d1aece421ef32fee2cb857a843" },
  "friendly-snippets": { "branch": "main", "commit": "682157939e57bd6a2c86277dfd4d6fbfce63dbac" },
  "kanagawa": { "branch": "master", "commit": "fe5b2c9e2549862c3dc3f3c8e9cf7ddece0f40c2" },
  "lazy.nvim": { "branch": "main", "commit": "bc620783663ab09d16bff9fdecc07da65b2a1528" },
  "lualine.nvim": { "branch": "master", "commit": "0a5a66803c7407767b799067986b4dc3036e1983" },
  "mason-lspconfig.nvim": { "branch": "main", "commit": "37a336b653f8594df75c827ed589f1c91d91ff6c" },
  "mason.nvim": { "branch": "main", "commit": "0950b15060067f752fde13a779a994f59516ce3d" },
  "neo-tree.nvim": { "branch": "v3.x", "commit": "29f7c215332ba95e470811c380ddbce2cebe2af4" },
  "none-ls-extras.nvim": { "branch": "main", "commit": "336e84b9e43c0effb735b08798ffac382920053b" },
  "none-ls.nvim": { "branch": "main", "commit": "cc0a3c45047e3daf85d07c1571d65476cfce6480" },
  "nui.nvim": { "branch": "main", "commit": "322978c734866996274467de084a95e4f9b5e0b1" },
  "nvim-cmp": { "branch": "main", "commit": "a110e12d0b58eefcf5b771f533fc2cf3050680ac" },
  "nvim-lspconfig": { "branch": "master", "commit": "6806370929cf6a35be6e5e0e74588515a4356e4d" },
  "nvim-treesitter": { "branch": "master", "commit": "7b04b398f868563cac37ae90baffd7c3dca513fe" },
  "nvim-web-devicons": { "branch": "master", "commit": "c0cfc1738361b5da1cd0a962dd6f774cc444f856" },
  "plenary.nvim": { "branch": "master", "commit": "a3e3bc82a3f95c5ed0d7201546d5d2c19b20d683" },
  "telescope-ui-select.nvim": { "branch": "master", "commit": "6e51d7da30bd139a6950adf2a47fda6df9fa06d2" },
  "telescope.nvim": { "branch": "master", "commit": "6312868392331c9c0f22725041f1ec2bef57c751" },
  "vim-tmux-navigator": { "branch": "master", "commit": "5b3c701686fb4e6629c100ed32e827edf8dad01e" }
}